[gd_scene load_steps=3 format=2]

[ext_resource path="res://src/Actors/Player.tscn" type="PackedScene" id=1]
[ext_resource path="res://src/Levels/TileMap.tscn" type="PackedScene" id=2]

[node name="LevelTemplate" type="Node2D"]

[node name="Player" parent="." instance=ExtResource( 1 )]
position = Vector2( 546, 132 )
collision_mask = 8
gravity = 10.0

[node name="TileMap" parent="." instance=ExtResource( 2 )]
