[gd_scene load_steps=2 format=2]

[ext_resource path="res://src/scripts/sprtest.gd" type="Script" id=1]

[node name="Sprtr" type="Node2D"]
position = Vector2( 270, 230 )
script = ExtResource( 1 )

[node name="DebugText" type="RichTextLabel" parent="."]
margin_left = -260.0
margin_top = -220.0
margin_right = 750.0
margin_bottom = 30.0
